<svg xmlns="http://www.w3.org/2000/svg" height="24" viewBox="0 -960 960 960" width="24">
<styles>
path {
    background-color: "white";
}
</styles>
<path d="M280-400h65q8 0 15.5-3t13.5-9l188-188q9-9 13.5-20.5T580-643q0-11-5-21.5T562-684l-36-38q-9-9-20-13.5t-23-4.5q-11 0-22.5 4.5T440-722L252-534q-6 6-9 13.5t-3 15.5v65q0 17 11.5 28.5T280-400Zm240-243-37-37 37 37ZM300-460v-38l101-101 20 18 18 20-101 101h-38Zm121-121 18 20-38-38 20 18Zm26 181h233q17 0 28.5-11.5T720-440q0-17-11.5-28.5T680-480H527l-80 80ZM240-240l-92 92q-19 19-43.5 8.5T80-177v-623q0-33 23.5-56.5T160-880h640q33 0 56.5 23.5T880-800v480q0 33-23.5 56.5T800-240H240Zm-34-80h594v-480H160v525l46-45Zm-46 0v-480 480Z"/></svg>